{
    "HOSTNAME": "localhost",
    "PORT": 3000,
    "SHOPIFY": {
        "URL_SHOPIFY": "https://shiran-cymbio-test.myshopify.com/admin/api/2020-01",
        "API_KEY": "4eba4e46cd052bc6e2d50a07fbc4c184",
        "PASSWORD": "b4dd3224633c8b885803a95ead62b85e",
        "LIMIT_PRODUCTS": 2
    }
   
}
